<svg width="20" height="14" viewBox="0 0 20 14" fill="none" xmlns="http://www.w3.org/2000/svg">
<path d="M19.75 5.91667H4.39917L8.2775 2.0275L6.75 0.5L0.25 7L6.75 13.5L8.2775 11.9725L4.39917 8.08333H19.75V5.91667Z" fill="white"/>
</svg>
