<svg width="23" height="23" viewBox="0 0 23 23" fill="none" xmlns="http://www.w3.org/2000/svg">
<path d="M16.3627 12.5226C17.1586 12.5226 17.859 12.0874 18.2197 11.4292L22.0186 4.53986C22.4113 3.83924 21.9019 2.96878 21.0955 2.96878H5.39051L4.39304 0.845703H0.923096V2.96878H3.04538L6.8655 11.0259L5.43296 13.616C4.65832 15.0385 5.67702 16.7688 7.28996 16.7688H20.0237V14.6457H7.28996L8.45722 12.5226H16.3627ZM6.3986 5.09186H19.2915L16.3627 10.3995H8.91351L6.3986 5.09186ZM7.28996 17.8303C6.1227 17.8303 5.17829 18.7857 5.17829 19.9534C5.17829 21.1211 6.1227 22.0765 7.28996 22.0765C8.45722 22.0765 9.41225 21.1211 9.41225 19.9534C9.41225 18.7857 8.45722 17.8303 7.28996 17.8303ZM17.9014 17.8303C16.7341 17.8303 15.7897 18.7857 15.7897 19.9534C15.7897 21.1211 16.7341 22.0765 17.9014 22.0765C19.0687 22.0765 20.0237 21.1211 20.0237 19.9534C20.0237 18.7857 19.0687 17.8303 17.9014 17.8303Z" fill="#777777"/>
</svg>
