<svg width="12" height="12" viewBox="0 0 12 12" fill="none" xmlns="http://www.w3.org/2000/svg">
<path d="M8.62508 0.75C7.61008 0.75 6.63592 1.2225 6.00008 1.96917C5.36425 1.2225 4.39008 0.75 3.37508 0.75C1.57841 0.75 0.166748 2.16167 0.166748 3.95833C0.166748 6.16333 2.15008 7.96 5.15425 10.69L6.00008 11.4542L6.84591 10.6842C9.85008 7.96 11.8334 6.16333 11.8334 3.95833C11.8334 2.16167 10.4217 0.75 8.62508 0.75ZM6.05842 9.82083L6.00008 9.87917L5.94175 9.82083C3.16508 7.30667 1.33341 5.64417 1.33341 3.95833C1.33341 2.79167 2.20841 1.91667 3.37508 1.91667C4.27342 1.91667 5.14842 2.49417 5.45758 3.29333H6.54841C6.85175 2.49417 7.72675 1.91667 8.62508 1.91667C9.79175 1.91667 10.6667 2.79167 10.6667 3.95833C10.6667 5.64417 8.83508 7.30667 6.05842 9.82083Z" fill="#FFFFFF"/>
</svg>
