<svg width="24" height="21" viewBox="0 0 24 21" fill="none" xmlns="http://www.w3.org/2000/svg">
<path d="M12 3.91303L17.5385 9.04425V17.9498H15.3231V11.1081H8.67694V17.9498H6.46156V9.04425L12 3.91303ZM12 0.845703L0.923096 11.1081H4.24617V20.2303H10.8923V13.3887H13.1077V20.2303H19.7539V11.1081H23.0769L12 0.845703Z" fill="#F56400"/>
</svg>
